{"_id":{"$oid":"5cff6a0afb9c8f13c004c0c8"},"itemTitle":"Algorithm1","courseId":{"$oid":"5cfe81f30fcfc67a8d76bddf"},"parentId":null}
{"_id":{"$oid":"5cff6a40fb9c8f13c004c0ca"},"itemTitle":"Algorithm2","courseId":{"$oid":"5cfe81f30fcfc67a8d76bddf"},"parentId":null}
{"_id":{"$oid":"5cff6a63fb9c8f13c004c0cc"},"itemTitle":"Algorithm3","courseId":{"$oid":"5cfe81f30fcfc67a8d76bddf"},"parentId":null}
{"_id":{"$oid":"5d007415e9851d23c309dfd6"},"itemTitle":"Math1","courseId":{"$oid":"5cfe88200fcfc67a8d76bde1"},"parentId":null}
{"_id":{"$oid":"5d007441e9851d23c309dfd8"},"itemTitle":"Math2","courseId":{"$oid":"5cfe88200fcfc67a8d76bde1"},"parentId":null}
{"_id":{"$oid":"5d007468e9851d23c309dfda"},"itemTitle":"school1","courseId":{"$oid":"5cfe904ea876ac0299886e18"},"parentId":null}
{"_id":{"$oid":"5d007493e9851d23c309dfdc"},"itemTitle":"parallel1","courseId":{"$oid":"5cfe880c0fcfc67a8d76bde0"},"parentId":null}
{"_id":{"$oid":"5d0074d9e9851d23c309dfde"},"itemTitle":"Physic1","courseId":{"$oid":"5cfe8a0d1de8857d5d6e071c"},"parentId":null}
{"_id":{"$oid":"5d007503e9851d23c309dfe0"},"itemTitle":"house1","courseId":{"$oid":"5cfe8a88970ae87e4936d77f"},"parentId":null}
{"_id":{"$oid":"5d007e24e9851d23c309dfe7"},"itemTitle":"Algo1.1","parentId":{"$oid":"5cff6a0afb9c8f13c004c0c8"},"courseId":{"$oid":"5cfe81f30fcfc67a8d76bddf"}}
{"_id":{"$oid":"5d007eebe9851d23c309dff3"},"itemTitle":"Algo2.1","parentId":{"$oid":"5cff6a40fb9c8f13c004c0ca"},"courseId":{"$oid":"5cfe81f30fcfc67a8d76bddf"}}
{"_id":{"$oid":"5d007f22e9851d23c309dff6"},"itemTitle":"Algo3.1","parentId":{"$oid":"5cff6a63fb9c8f13c004c0cc"},"courseId":{"$oid":"5cfe81f30fcfc67a8d76bddf"}}
{"_id":{"$oid":"5d011f7c1e0f7f1e981c98d1"},"itemTitle":"Algo1.1.1","parentId":{"$oid":"5d007e24e9851d23c309dfe7"},"courseId":{"$oid":"5cfe81f30fcfc67a8d76bddf"}}
{"_id":{"$oid":"5d011fc41e0f7f1e981c98d4"},"itemTitle":"Algo1.1.2","parentId":{"$oid":"5d007e24e9851d23c309dfe7"},"courseId":{"$oid":"5cfe81f30fcfc67a8d76bddf"}}
{"_id":{"$oid":"5d0120211e0f7f1e981c98d7"},"itemTitle":"Algo2.1.1","parentId":{"$oid":"5d007eebe9851d23c309dff3"},"courseId":{"$oid":"5cfe81f30fcfc67a8d76bddf"}}
