{"_id":{"$oid":"5cfe8c5a02034a2ccd2bbb5c"},"learnerName":"Su Su"}
{"_id":{"$oid":"5cff4ef8fb9c8f13c004c0c5"},"learnerName":"Kyaw Kyaw"}
{"_id":{"$oid":"5cff4f0dfb9c8f13c004c0c6"},"learnerName":"Khaing"}
{"_id":{"$oid":"5d007529e9851d23c309dfe2"},"learnerName":"Zar Zar"}
{"_id":{"$oid":"5d007534e9851d23c309dfe3"},"learnerName":"Nyi Nyi"}
{"_id":{"$oid":"5d00753fe9851d23c309dfe4"},"learnerName":"Thant"}
{"_id":{"$oid":"5d00754ae9851d23c309dfe5"},"learnerName":"Shwe"}
